COM+[9:41:11]: ********************************************************************************
COM+[9:41:11]: Setup started - [DATE:10,22,2010 TIME: 09:41 pm]
COM+[9:41:11]: ********************************************************************************
COM+[9:41:11]: Start OC_INIT_COMPONENT Component = com
COM+[9:41:11]: INF VERSION (com) = 2001,12,4414,700
COM+[9:41:11]: Instantiating CMasterNT5Wks
COM+[9:41:11]: Memory usage for setup process...
COM+[9:41:11]: PeakWorkingSetSize: 12356 Kb, WorkingSetSize: 12356 Kb
COM+[9:41:11]: QuotaPeakPagedPoolUsage: 55 Kb, QuotaPagedPoolUsage: 55 Kb
COM+[9:41:11]: PeakPagefileUsage: 11968 Kb, PagefileUsage: 11668 Kb
COM+[9:41:11]: MTSS: Answer File = 
COM+[9:41:11]: Calling SetupOpenInfFile.
COM+[9:41:11]: Unable to open Answer File!!
COM+[9:41:11]: DRID-39104  -> Path: C:\WINDOWS\Java\Trustlib\
COM+[9:41:11]: Installed COM product version = 3.0.0.4414
COM+[9:41:11]: SETUP VERSION = 3.0.0.4414
COM+[9:41:11]:  Installation Mode = MAINTENANCE
COM+[9:41:11]:  Maintnenance Mode = ADD_REMOVE
COM+[9:41:11]: DRID-39103  -> Path: C:\Program Files\Common Files\ODBC\Data Sources\
COM+[9:41:11]: End OC_INIT_COMPONENT Return Value = 0
COM+[9:41:13]: Start OC_QUERY_STATEComponent = com Subcomponent = com
COM+[9:41:13]: Subcomponent com state: O-,C-,R+
COM+[9:41:13]: End OC_QUERY_STATE Return Value = 0
COM+[9:41:13]: Start OC_CLEANUP Component = com
COM+[9:41:13]: Stopping service COM+ System Application...
COM+[9:41:13]: Memory usage for setup process...
COM+[9:41:13]: PeakWorkingSetSize: 27840 Kb, WorkingSetSize: 23016 Kb
COM+[9:41:13]: QuotaPeakPagedPoolUsage: 80 Kb, QuotaPagedPoolUsage: 73 Kb
COM+[9:41:13]: PeakPagefileUsage: 14208 Kb, PagefileUsage: 14204 Kb
COM+[9:41:13]: End OC_CLEANUP Return Value = 0
COM+[9:41:14]: ********************************************************************************
COM+[9:41:14]: Setup finished - [DATE:10,22,2010 TIME: 09:41 pm]
COM+[9:41:14]: ********************************************************************************
COM+[9:41:22]: ********************************************************************************
COM+[9:41:22]: Setup started - [DATE:10,22,2010 TIME: 09:41 pm]
COM+[9:41:22]: ********************************************************************************
COM+[9:41:22]: Start OC_INIT_COMPONENT Component = com
COM+[9:41:22]: INF VERSION (com) = 2001,12,4414,700
COM+[9:41:22]: Instantiating CMasterNT5Wks
COM+[9:41:22]: Memory usage for setup process...
COM+[9:41:22]: PeakWorkingSetSize: 12300 Kb, WorkingSetSize: 12300 Kb
COM+[9:41:22]: QuotaPeakPagedPoolUsage: 55 Kb, QuotaPagedPoolUsage: 55 Kb
COM+[9:41:22]: PeakPagefileUsage: 11908 Kb, PagefileUsage: 11656 Kb
COM+[9:41:22]: MTSS: Answer File = 
COM+[9:41:22]: Calling SetupOpenInfFile.
COM+[9:41:22]: Unable to open Answer File!!
COM+[9:41:22]: DRID-39104  -> Path: C:\WINDOWS\Java\Trustlib\
COM+[9:41:22]: Installed COM product version = 3.0.0.4414
COM+[9:41:22]: SETUP VERSION = 3.0.0.4414
COM+[9:41:22]:  Installation Mode = MAINTENANCE
COM+[9:41:22]:  Maintnenance Mode = ADD_REMOVE
COM+[9:41:22]: DRID-39103  -> Path: C:\Program Files\Common Files\ODBC\Data Sources\
COM+[9:41:22]: End OC_INIT_COMPONENT Return Value = 0
COM+[9:41:22]: Start OC_QUERY_STATEComponent = com Subcomponent = com
COM+[9:41:22]: Subcomponent com state: O-,C-,R+
COM+[9:41:22]: End OC_QUERY_STATE Return Value = 0
COM+[9:41:23]: Start OC_CLEANUP Component = com
COM+[9:41:23]: Stopping service COM+ System Application...
COM+[9:41:23]: Memory usage for setup process...
COM+[9:41:23]: PeakWorkingSetSize: 27816 Kb, WorkingSetSize: 22988 Kb
COM+[9:41:23]: QuotaPeakPagedPoolUsage: 80 Kb, QuotaPagedPoolUsage: 73 Kb
COM+[9:41:23]: PeakPagefileUsage: 14200 Kb, PagefileUsage: 14196 Kb
COM+[9:41:23]: End OC_CLEANUP Return Value = 0
COM+[9:41:23]: ********************************************************************************
COM+[9:41:23]: Setup finished - [DATE:10,22,2010 TIME: 09:41 pm]
COM+[9:41:23]: ********************************************************************************
COM+[9:41:52]: ********************************************************************************
COM+[9:41:52]: Setup started - [DATE:10,22,2010 TIME: 09:41 pm]
COM+[9:41:52]: ********************************************************************************
COM+[9:41:52]: Start OC_INIT_COMPONENT Component = com
COM+[9:41:52]: INF VERSION (com) = 2001,12,4414,700
COM+[9:41:52]: Instantiating CMasterNT5Wks
COM+[9:41:52]: Memory usage for setup process...
COM+[9:41:52]: PeakWorkingSetSize: 19340 Kb, WorkingSetSize: 13188 Kb
COM+[9:41:52]: QuotaPeakPagedPoolUsage: 57 Kb, QuotaPagedPoolUsage: 55 Kb
COM+[9:41:52]: PeakPagefileUsage: 20712 Kb, PagefileUsage: 12308 Kb
COM+[9:41:52]: MTSS: Answer File = 
COM+[9:41:52]: Calling SetupOpenInfFile.
COM+[9:41:52]: Unable to open Answer File!!
COM+[9:41:52]: DRID-39104  -> Path: C:\WINDOWS\Java\Trustlib\
COM+[9:41:52]: Installed COM product version = 3.0.0.4414
COM+[9:41:52]: SETUP VERSION = 3.0.0.4414
COM+[9:41:52]:  Installation Mode = MAINTENANCE
COM+[9:41:52]:  Maintnenance Mode = ADD_REMOVE
COM+[9:41:52]: DRID-39103  -> Path: C:\Program Files\Common Files\ODBC\Data Sources\
COM+[9:41:52]: End OC_INIT_COMPONENT Return Value = 0
COM+[9:41:53]: Start OC_QUERY_STATEComponent = com Subcomponent = com
COM+[9:41:53]: Subcomponent com state: O-,C-,R+
COM+[9:41:53]: End OC_QUERY_STATE Return Value = 0
COM+[9:41:54]: Start OC_CLEANUP Component = com
COM+[9:41:54]: Stopping service COM+ System Application...
COM+[9:41:54]: Memory usage for setup process...
COM+[9:41:54]: PeakWorkingSetSize: 28716 Kb, WorkingSetSize: 23892 Kb
COM+[9:41:54]: QuotaPeakPagedPoolUsage: 81 Kb, QuotaPagedPoolUsage: 73 Kb
COM+[9:41:54]: PeakPagefileUsage: 20712 Kb, PagefileUsage: 14912 Kb
COM+[9:41:54]: End OC_CLEANUP Return Value = 0
COM+[9:41:56]: ********************************************************************************
COM+[9:41:56]: Setup finished - [DATE:10,22,2010 TIME: 09:41 pm]
COM+[9:41:56]: ********************************************************************************
COM+[9:42:7]: ********************************************************************************
COM+[9:42:7]: Setup started - [DATE:10,22,2010 TIME: 09:42 pm]
COM+[9:42:7]: ********************************************************************************
COM+[9:42:7]: Start OC_INIT_COMPONENT Component = com
COM+[9:42:7]: INF VERSION (com) = 2001,12,4414,700
COM+[9:42:7]: Instantiating CMasterNT5Wks
COM+[9:42:7]: Memory usage for setup process...
COM+[9:42:7]: PeakWorkingSetSize: 12580 Kb, WorkingSetSize: 12580 Kb
COM+[9:42:7]: QuotaPeakPagedPoolUsage: 57 Kb, QuotaPagedPoolUsage: 55 Kb
COM+[9:42:7]: PeakPagefileUsage: 12124 Kb, PagefileUsage: 11868 Kb
COM+[9:42:7]: MTSS: Answer File = 
COM+[9:42:7]: Calling SetupOpenInfFile.
COM+[9:42:7]: Unable to open Answer File!!
COM+[9:42:7]: DRID-39104  -> Path: C:\WINDOWS\Java\Trustlib\
COM+[9:42:7]: Installed COM product version = 3.0.0.4414
COM+[9:42:7]: SETUP VERSION = 3.0.0.4414
COM+[9:42:7]:  Installation Mode = MAINTENANCE
COM+[9:42:7]:  Maintnenance Mode = ADD_REMOVE
COM+[9:42:7]: DRID-39103  -> Path: C:\Program Files\Common Files\ODBC\Data Sources\
COM+[9:42:7]: End OC_INIT_COMPONENT Return Value = 0
COM+[9:42:8]: Start OC_QUERY_STATEComponent = com Subcomponent = com
COM+[9:42:8]: Subcomponent com state: O-,C-,R+
COM+[9:42:8]: End OC_QUERY_STATE Return Value = 0
COM+[9:42:8]: Start OC_CLEANUP Component = com
COM+[9:42:8]: Stopping service COM+ System Application...
COM+[9:42:8]: Memory usage for setup process...
COM+[9:42:8]: PeakWorkingSetSize: 28004 Kb, WorkingSetSize: 23088 Kb
COM+[9:42:8]: QuotaPeakPagedPoolUsage: 80 Kb, QuotaPagedPoolUsage: 73 Kb
COM+[9:42:8]: PeakPagefileUsage: 14316 Kb, PagefileUsage: 14244 Kb
COM+[9:42:8]: End OC_CLEANUP Return Value = 0
COM+[9:42:8]: ********************************************************************************
COM+[9:42:8]: Setup finished - [DATE:10,22,2010 TIME: 09:42 pm]
COM+[9:42:8]: ********************************************************************************
