02/21 15:06:36 -----------------------------------------------------------------
02/21 15:06:36 NetpValidateName: checking to see if 'WORKGROUP' is valid as type 2 name
02/21 15:06:36 NetpCheckNetBiosNameNotInUse: for 'WORKGROUP' returned: 0x858
02/21 15:06:36 NetpCheckNetBiosNameNotInUse for 'WORKGROUP' [ Workgroup as MACHINE]  returned 0x858
02/21 15:06:36 NetpValidateName: name 'WORKGROUP' is valid for type 2
02/21 15:06:36 -----------------------------------------------------------------
02/21 15:06:36 NetpValidateName: checking to see if 'WORKGROUP' is valid as type 2 name
02/21 15:06:36 NetpCheckNetBiosNameNotInUse: for 'WORKGROUP' returned: 0x858
02/21 15:06:36 NetpCheckNetBiosNameNotInUse for 'WORKGROUP' [ Workgroup as MACHINE]  returned 0x858
02/21 15:06:36 NetpValidateName: name 'WORKGROUP' is valid for type 2
02/21 15:06:36 -----------------------------------------------------------------
02/21 15:06:36 NetpValidateName: checking to see if 'WORKGROUP' is valid as type 2 name
02/21 15:06:36 NetpCheckNetBiosNameNotInUse: for 'WORKGROUP' returned: 0x858
02/21 15:06:36 NetpCheckNetBiosNameNotInUse for 'WORKGROUP' [ Workgroup as MACHINE]  returned 0x858
02/21 15:06:36 NetpValidateName: name 'WORKGROUP' is valid for type 2
02/21 15:06:37 -----------------------------------------------------------------
02/21 15:06:37 NetpDoDomainJoin
02/21 15:06:37 NetpMachineValidToJoin: 'ODROBIK'
02/21 15:06:37 NetpGetLsaPrimaryDomain: status: 0x0
02/21 15:06:37 NetpMachineValidToJoin: status: 0x0
02/21 15:06:37 NetpJoinWorkgroup: joining computer 'ODROBIK' to workgroup 'WORKGROUP'
02/21 15:06:37 NetpValidateName: checking to see if 'WORKGROUP' is valid as type 2 name
02/21 15:06:37 NetpCheckNetBiosNameNotInUse: for 'WORKGROUP' returned: 0x858
02/21 15:06:37 NetpCheckNetBiosNameNotInUse for 'WORKGROUP' [ Workgroup as MACHINE]  returned 0x858
02/21 15:06:37 NetpValidateName: name 'WORKGROUP' is valid for type 2
02/21 15:06:37 NetpSetLsaPrimaryDomain: for 'WORKGROUP' status: 0x0
02/21 15:06:37 NetpControlServices: open service 'NETLOGON' failed: 0x424
02/21 15:06:37 NetpJoinWorkgroup: status:  0x0
02/21 15:06:37 NetpDoDomainJoin: status: 0x0
02/21 15:07:15 -----------------------------------------------------------------
02/21 15:07:15 NetpValidateName: checking to see if 'ODROBIK' is valid as type 1 name
02/21 15:07:15 NetpCheckNetBiosNameNotInUse for 'ODROBIK' [MACHINE] returned 0x0
02/21 15:07:15 NetpValidateName: name 'ODROBIK' is valid for type 1
