__utma
1.983855695.1238762268.1238762268.1238762268.1
booking.orangesmile.com/
1600
4020723584
30142971
4269198480
29996120
*
__utmb
1
booking.orangesmile.com/
1600
788272000
29996125
4269198480
29996120
*
__utmz
1.1238762268.1.1.utmccn=(referral)|utmcsr=orangesmile.com|utmcct=/hotels/czechia/marianske-lazne.htm|utmcmd=referral
booking.orangesmile.com/
1600
3128770432
30032833
4269978480
29996120
*
