__utma
133887070.2039341183.1286982727.1286982727.1286982727.1
allergin.ru/
1600
4042467072
30255243
4294061968
30108392
*
__utmz
133887070.1286982727.1.1.utmcsr=google|utmccn=(organic)|utmcmd=organic|utmctr=%D0%B0%D0%BC%D0%B1%D1%80%D0%BE%D0%B1%D0%B5%D0%BD%D0%B5%20%D0%B2%20%D0%BB%D0%B5%D1%87%D0%B5%D0%BD%D0%B8%D0%B8%20%D0%B1%D1%80%D0%BE%D0%BD%D1%85%D0%BE%D0%BB%D0%B5%D0%B3%D0%BE%D1%87%D0%BD%D0%BE%D0%B3%D0%BE%20%D1%81%D0%B8%D0%BD%D0%B4%D1%80%D0%BE%D0%BC%D0%B0
allergin.ru/
1600
3150513920
30145105
4293911968
30108392
*
