__utma
148728297.445288573.1270224824.1270224824.1270224824.1
olayforyou.ru/
1600
1761455104
30216226
2006650000
30069375
*
__utmz
148728297.1270224824.1.1.utmcsr=wg218.odnoklassniki.ru|utmccn=(referral)|utmcmd=referral|utmcct=/dk
olayforyou.ru/
1600
869501952
30106088
2006650000
30069375
*
