ruid
w+9WGkvRzjYSvXIgCxeBAg==
readme.ru/
1024
688338816
32108254
1519795216
30073604
*
qid
94e54755530595680bf573129de5fb8e
readme.ru/
1024
552956800
30154200
2613192896
30080774
*
watchguid
GUID4BF6CDD7E749B
readme.ru/
1024
1327989504
30154201
324508304
30080776
*
