__utma
137546797.883687315.1280089070.1280089070.1280089070.1
light-flight.ru/
1600
1707567872
30239193
1951202768
30092342
*
__utmb
137546797
light-flight.ru/
1600
2770083584
30092346
1951202768
30092342
*
__utmz
137546797.1280089070.1.1.utmccn=(organic)|utmcsr=yandex|utmctr=%D0%B0%D0%B2%D0%B8%D0%B0%D0%B1%D0%B8%D0%BB%D0%B5%D1%82%D1%8B+%D0%B2+%D1%82%D1%83%D1%80%D1%86%D0%B8%D1%8E+%D0%B4%D0%B5%D1%88%D0%B5%D0%B2%D0%BE|utmcmd=organic
light-flight.ru/
1600
815614720
30129055
1951352768
30092342
*
