__utma
160272702.844905531.1270321344.1279134316.1282578513.11
rs.nabortu.ru/
1600
2627120256
30244989
2879185152
30098138
*
__utmz
160272702.1282578513.11.11.utmcsr=nabortu.ru|utmccn=(referral)|utmcmd=referral|utmcct=/
rs.nabortu.ru/
1600
1615167104
30134851
2753715152
30098138
*
__visu
AAAAAA1rx8wAAAAADWvHzA__
rs.nabortu.ru/
1600
2564414336
30467509
1026172928
30100382
*
