__utma
85456070.822946685.1277477747.1277477747.1277477747.1
artinvestment.ru/
1600
3248727552
30233113
3493452448
30086262
*
__utmb
85456070.2.10.1277477747
artinvestment.ru/
1600
16275968
30086267
3493612448
30086262
*
__utmz
85456070.1277477747.1.1.utmcsr=google|utmccn=(organic)|utmcmd=organic|utmctr=%D0%9B%D1%8E%D1%81%D1%8F%20%D0%92%D0%BE%D1%80%D0%BE%D0%BD%D0%BE%D0%B2%D0%B0
artinvestment.ru/
1600
976774400
30122975
2117042448
30086262
*
cnscc
1277477753
artinvestment.ru/
1536
1983809920
30159730
2117822448
30086262
*
cnstid
2140386827
artinvestment.ru/
1024
1983809920
30159730
3493612448
30086262
*
cnslastvisit
1277477891
artinvestment.ru/
1024
1983809920
30159730
3493612448
30086262
*
cnsuid
1389341
artinvestment.ru/
1024
4252486016
30086304
2118922448
30086262
*
