ctc
on%5F3
medialand.relax.ru/
1024
194832768
30859217
786706992
30109973
*
id
2065106610
medialand.relax.ru/
1024
194832768
30859217
786706992
30109973
*
bht
0-123-0-0-0
medialand.relax.ru/
1024
194832768
30859217
786706992
30109973
*
cpa
2746-20934-1865-1-1287661426%3A1862-16565-2058-1-1287661426%3A1987-15030-2060-1-1287661426
medialand.relax.ru/
1024
194832768
30859217
785926992
30109973
*
fci
2083-260-1-1274465801-1%3A2685-390-5-1275121370-5%3A2167-260-4-1275121370-4%3A2698-379-14-1276455657-14%3A2247-379-16-1284567985-16%3A1495-379-12-1287661426-12%3A601239-78-3-1284567984-3%3A599960-78-1-1284567955-1%3A602391-383-4-1286981722-4%3A602359-383-4-1286981723-4%3A602375-383-4-1286981723-4%3A619540-383-1-1287661426-1%3A2708-48-1-1287661426-1
medialand.relax.ru/
1024
194832768
30859217
786086992
30109973
*
