__utma
43190135.1781668810.1271781326.1271781326.1271781326.1
cheapoair.com/
1088
3359974400
30219850
3610849296
30072999
*
__utmb
43190135.3.10.1271781326
cheapoair.com/
1088
127522816
30073004
3611009296
30072999
*
__utmz
43190135.1271781326.1.1.utmcsr=google|utmccn=(organic)|utmcmd=organic|utmctr=klm%20airlines
cheapoair.com/
1088
918021248
30109712
2060689296
30072999
*
