__utma
120325261.1456109450.1286981301.1286981301.1291573242.2
tiensmed.ru/
1600
2072832
30265933
248667728
30119082
*
__utmz
120325261.1291573642.2.3.utmcsr=google|utmccn=(organic)|utmcmd=organic|utmctr=%D0%BB%D0%B0%D0%B7%D0%BE%D0%BB%D0%B2%D0%B0%D0%BD%20%D0%BF%D1%80%D0%B8%20%D0%B1%D1%80%D0%BE%D0%BD%D1%85%D0%B8%D0%B0%D0%BB%D1%8C%D0%BD%D0%BE%D0%B9%20%D0%B0%D1%81%D1%82%D0%BC%D0%B5
tiensmed.ru/
1600
3405086976
30155794
248667728
30119082
*
