link_id
6462
love.mail.ru/
9216
2166667008
30239777
3598139600
30166150
*
AUTH_LOGIN
smirnova.mila%40mail.ru
love.mail.ru/
9216
2998898560
33252015
4126109600
30166150
*
__utma
239394334.422981848.1279272777.1279272777.1279823308.2
love.mail.ru/
1088
3292324096
30238574
3543298992
30091723
*
bar
AShwjUz54RmYnfClOdlMYFwIyZXEUfAc4Rw1DJA4xcT8%2BVg8kEAVjfVFCMGVEcjFuPy8peSRFfUxwJGUUYUNwDlpzCkU4
love.mail.ru/
1024
2696667008
30239777
4126109600
30166150
*
s
t0jSMGwyvt2bOfUhVgX5iZYJeIfFuxhJ
love.mail.ru/
9216
4147825536
30195934
2237084336
30122509
*
PREV_LOGIN
1504b
love.mail.ru/
9216
3168031872
30180193
1076740672
30106768
*
unauth_lang
2
love.mail.ru/
9216
3918522112
33134128
3403141632
30122508
*
mmbsid
dkLKE7n6AtB7oJGRL6gmFmjZJhGZt8xP
love.mail.ru/
9216
2996667008
30239777
126142304
30166151
*
