__utma
27472761.1265551010548398000.1236102389.1236102389.1236102389.1
tv.akado.ru/
1600
3963187712
30136778
4213382608
29989927
*
__utmb
27472761.1.10.1236102389
tv.akado.ru/
1600
730736128
29989932
4213532608
29989927
*
__utmz
27472761.1236102389.1.1.utmcsr=news.mail.ru|utmccn=(referral)|utmcmd=referral|utmcct=/politics/2406787/
tv.akado.ru/
1600
3071234560
30026640
4212752608
29989927
*
