.ASPXANONYMOUS
FizuwSqpywEkAAAAZTM5MGQ0OWMtYTcwOS00MDU3LTg0NTMtMjJiZGE3NDM1ZWM45CYDbsajUkbfwErlh0EsXnsOuqU1
www.microsoft.com/
9216
3246088320
30124330
3701713440
30110360
*
WT_NVR
0=/:1=rus:2=rus/windows:3=rus/windows/internet-explorer|library/errorpages/smarterror.aspx
www.microsoft.com/
1088
4294286080
30820520
1216243264
30086266
*
