uid
0319d8a3e5a6609826f15da1e9c0c587
text.prbn.ru/
1024
2684731392
31520448
471256176
29989344
*
bsh
1235768400|
text.prbn.ru/
1024
2684731392
31520448
471256176
29989344
*
bch
1235768400|
text.prbn.ru/
1024
2684731392
31520448
471416176
29989344
*
