__utma
185976438.529815385.1274364082.1274364082.1283443908.2
kassir.ru/
1600
2098018816
30247004
2342903712
30100153
*
__utmb
185976438.1.10.1283443908
kassir.ru/
1600
3160534528
30100157
2343363712
30100153
*
__utmz
185976438.1283443908.2.2.utmcsr=mail.ru|utmccn=(referral)|utmcmd=referral|utmcct=/
kassir.ru/
1600
1206065664
30136866
2342743712
30100153
*
