__utma
205145091.2031711725.1274533579.1274533579.1274533579.1
beauty-shop.ru/
1088
1339607040
30226260
1584951936
30079409
*
__utmb
205145091.15.10.1274533579
beauty-shop.ru/
1088
2402122752
30079413
1585111936
30079409
*
__utmz
205145091.1274533579.1.1.utmcsr=(direct)|utmccn=(direct)|utmcmd=(none)
beauty-shop.ru/
1088
1307588480
30116120
2445986528
30079407
*
