__utma
181536190.1188302044.1285952127.1285952127.1285952127.1
hyundai-kuntsevo.ru/
1600
2419010176
30252844
2665295072
30105993
*
__utmb
181536190.3.10.1285952127
hyundai-kuntsevo.ru/
1600
3481525888
30105997
2665295072
30105993
*
__utmz
181536190.1285952127.1.1.utmcsr=auto.yandex.ru|utmccn=(referral)|utmcmd=referral|utmcct=/catalog.xml
hyundai-kuntsevo.ru/
1600
787057024
30142706
1924675072
30105993
*
