__utma
220547102.2070080153.1271776582.1276283126.1276283948.6
wwww.aeroflot.ru/
1600
3887810432
30230333
4139255328
30083482
*
__utmz
220547102.1271776582.1.1.utmcsr=(direct)|utmccn=(direct)|utmcmd=(none)
wwww.aeroflot.ru/
1600
722661504
30109701
1866269552
30072988
*
