__utma
2984627.315250960156852700.1241930320.1241930320.1241930320.1
russia.ru/
1600
566980992
30150348
815765888
30003497
*
__utmb
2984627.1.10.1241930320
russia.ru/
1600
1629496704
30003501
815765888
30003497
*
__utmz
2984627.1241930320.1.1.utmcsr=win.mail.ru|utmccn=(referral)|utmcmd=referral|utmcct=/cgi-bin/start
russia.ru/
1600
3969995136
30040209
815615888
30003497
*
