__utma
45787299.567328795.1273952109.1286988123.1287573933.9
vesti.ru/
1600
1932500480
30256620
2183475376
30109769
*
__utmz
45787299.1287573933.9.9.utmcsr=news.mail.ru|utmccn=(referral)|utmcmd=referral|utmcct=/society/4628761/
vesti.ru/
1600
1040547328
30146482
2183165376
30109769
*
__utmb
45787299.1.10.1287573933
vesti.ru/
1600
2995016192
30109773
2183635376
30109769
*
