__utma
262897424.1529859675016245500.1238082627.1238082627.1238082627.1
medi.ru/
1600
2258985856
30141389
2505270752
29994538
*
__utmz
262897424.1238082627.1.1.utmcsr=google|utmccn=(organic)|utmcmd=organic|utmctr=%D0%BE%D0%B1%D1%80%D0%B0%D0%B7%D0%BE%D0%B2%D0%B0%D1%82%D0%B5%D0%BB%D1%8C%D0%BD%D1%8B%D0%B5%20%D0%BF%D1%80%D0%BE%D0%B3%D1%80%D0%B0%D0%BC%D0%BC%D1%8B%20%D0%B4%D0%BB%D1%8F%20%D0%B2%D1%80%D0%B0%D1%87%D0%B5%D0%B9%20%D0%BF%D0%BE%20%D0%B1%D1%80%D0%BE%D0%BD%D1%85%D0%B8%D0%B0%D0%BB%D1%8C%D0%BD%D0%BE%D0%B9%20%D0%B0%D1%81%D1%82%D0%BC%D0%B5
medi.ru/
1600
1367032704
30031251
2505120752
29994538
*
