__utma
248121304.799097991.1283542192.1283542192.1283542192.1
aeroflot.ru/
1600
1460508032
30247233
1711642928
30100382
*
__utmz
248121304.1283542192.1.1.utmcsr=(direct)|utmccn=(direct)|utmcmd=(none)
aeroflot.ru/
1600
498554880
30137095
1633822928
30100382
*
__utmb
248121304.2.10.1283542192
aeroflot.ru/
1600
2523023744
30100386
1712422928
30100382
*
