PHPSESSID
e3cef2c680c9b407ba586e6ce341f8ae
vammebel.ru/
1024
1003444864
30085416
169666224
30079381
*
__utma
147194288.1563619168.1270930022.1271704468.1274522187.3
vammebel.ru/
1600
2118691328
30226232
2367946224
30079381
*
__utmb
147194288.5.10.1274522187
vammebel.ru/
1600
3181207040
30079385
2368106224
30079381
*
__utmz
147194288.1274522405.3.7.utmcsr=google|utmccn=(organic)|utmcmd=organic|utmctr=%D0%BA%D1%80%D0%B5%D1%81%D0%BB%D0%BE-%D0%BA%D1%80%D0%BE%D0%B2%D0%B0%D1%82%D1%8C
vammebel.ru/
1600
1226738176
30116094
2367786224
30079381
*
