mbox
check#true#1274790693|session#1274790632765-151774#1274792493|PC#1274790632765-151774.17#1276000235
www.nokia.ru/
1088
1688610688
30082822
312446224
30080006
*
CP
null*
www.nokia.ru/
1088
1761935360
30785590
304166224
30080006
*
