__utma
246551069.1207074368.1269890620.1284750632.1296761222.3
happy-family.ru/
1088
1177071744
30278011
1427576640
30131160
*
__utmb
246551069
happy-family.ru/
1088
3199587456
30131164
2386796640
30131160
*
__utmz
246551069.1296761222.3.1.utmccn=(direct)|utmcsr=(direct)|utmcmd=(none)
happy-family.ru/
1088
285118592
30167873
1431796640
30131160
*
