__utma
234044301.2014570030.1275486744.1275486744.1275486744.1
bazanov.info/
1600
3317111808
30228477
3564496704
30081626
*
__utmz
234044301.1275486744.1.1.utmcsr=yandex|utmccn=(organic)|utmcmd=organic|utmctr=%D0%B1%D0%B0%D0%B7%D0%B0%D0%BD%D0%BE%D0%B2%20%D0%BF%D0%B0%D0%B2%D0%B5%D0%BB%20%D0%B0%D0%BB%D0%B5%D0%BA%D1%81%D0%B0%D0%BD%D0%B4%D1%80%D0%BE%D0%B2%D0%B8%D1%87%20%D1%84%D0%BE%D1%82%D0%BE
bazanov.info/
1600
2425158656
30118339
3564176704
30081626
*
