__utma
57493928.492392847.1275836920.1275836920.1275836920.1
selectornews.com/
1600
373798272
30229293
623363168
30082442
*
__utmz
57493928.1275836920.1.1.utmcsr=medkrug.ru|utmccn=(referral)|utmcmd=referral|utmcct=/medicament/show/6225
selectornews.com/
1600
3776812416
30119154
623363168
30082442
*
