__utma
149778153.1791546037.1274727791.1274727791.1274727791.1
1001tur.ru/
1600
1084389248
30226712
1336144144
30079861
*
__utmb
149778153.29.10.1274727791
1001tur.ru/
1600
2146904960
30079865
1336304144
30079861
*
__utmz
149778153.1274727791.1.1.utmcsr=google|utmccn=(organic)|utmcmd=organic|utmctr=%D1%82%D1%83%D1%80%D1%8B%20%D0%B2%20%D0%B8%D1%81%D0%BF%D0%B0%D0%BD%D0%B8%D1%8E
1001tur.ru/
1600
2102370688
30116572
3238108736
30079859
*
