__utma
46749986.1533515254.1282748770.1282748770.1282748770.1
textile.su/
1088
4270071040
30245385
217798640
30098535
*
__utmb
46749986
textile.su/
1088
1077619456
30098539
259988640
30098535
*
__utmz
46749986.1282748770.1.1.utmccn=(organic)|utmcsr=google|utmctr=%D0%BF%D0%BE%D0%BA%D1%80%D1%8B%D0%B2%D0%B0%D0%BB%D0%BE+%D0%BD%D0%B0+%D0%B4%D0%B8%D0%B2%D0%B0%D0%BD|utmcmd=organic
textile.su/
1088
3378117888
30135247
217948640
30098535
*
