teasernet_ids6493
4326%2C3732%2C3717%2C3018%2C3715%2C3706%2C3690%2C3028%2C3723%2C3020%2C3009%2C3691%2C3008%2C3013%2C3010
pornoshara.com/
1600
1948638080
30008520
1237994576
30008319
*
clickunder
1
pornoshara.com/
1600
800334976
30008419
88761472
30008218
*
