__utma
202756370.596327019.1270228503.1276804689.1284999926.8
rabota.mail.ru/
1600
1601505408
30250627
1852790304
30103776
*
__utmz
202756370.1284999926.8.8.utmcsr=mail.ru|utmccn=(referral)|utmcmd=referral|utmcct=/
rabota.mail.ru/
1600
709552256
30140489
1852790304
30103776
*
