__utma
261597704.1724523198.1276186363.1276186363.1276186363.1
tickets.airbaltic.com/
1088
2995386624
30230106
3247451520
30083255
*
__utmz
261597704.1276186363.1.1.utmcsr=airbaltic.ru|utmccn=(referral)|utmcmd=referral|utmcct=/public/ru/index.html
tickets.airbaltic.com/
1088
2103433472
30119968
3247451520
30083255
*
