__utma
126636957.390476284.1273942035.1274462024.1275397449.3
aif.ru/
1600
3710309376
30228269
3960814272
30081418
*
__utmz
126636957.1275397449.3.3.utmcsr=news.yandex.ru|utmccn=(referral)|utmcmd=referral|utmcct=/yandsearch
aif.ru/
1600
2818356224
30118131
3960654272
30081418
*
