__utma
35348148.19496044.1271705127.1271705127.1271705127.1
divan-divanich.net/
1088
39185792
30219673
286100688
30072822
*
__utmb
35348148.1.10.1271705127
divan-divanich.net/
1088
1101701504
30072826
287500688
30072822
*
__utmz
35348148.1271705127.1.1.utmcsr=google|utmccn=(organic)|utmcmd=organic|utmctr=%D0%BA%D1%80%D0%B5%D1%81%D0%BB%D0%BE-%D0%BA%D1%80%D0%BE%D0%B2%D0%B0%D1%82%D1%8C%20%D0%BA%D1%83%D0%BF%D0%B8%D1%82%D1%8C%20%D0%B2%20%D0%BC%D0%BE%D1%81%D0%BA%D0%B2%D0%B5
divan-divanich.net/
1088
3442199936
30109534
285000688
30072822
*
