__utma
58809087.173975445.1270392496.1287771760.1290160351.18
christinashop.ru/
1600
2979443968
30262642
3224008864
30115791
*
__utmz
58809087.1290160351.18.2.utmcsr=win.mail.ru|utmccn=(referral)|utmcmd=referral|utmcct=/cgi-bin/readmsg
christinashop.ru/
1600
937490816
30152504
2073078864
30115791
*
__utmb
58809087.6.10.1290160351
christinashop.ru/
1600
4041959680
30115795
3224008864
30115791
*
