irVisitorID
236614535
inforotor.net/
1024
2664780544
30110836
1234866080
30108020
*
irFirstHit
1286822654040
inforotor.net/
1024
3318977280
30181445
1235026080
30108020
*
irMemberID
0
inforotor.net/
1024
2664780544
30110836
1235026080
30108020
*
