__utma
229240335.1991957596.1283542263.1283542263.1283542263.1
booking.aeroflot.ru/
1088
2600508032
30247233
2850232928
30100382
*
__utmb
229240335.8.10.1283542263
booking.aeroflot.ru/
1088
3663023744
30100386
2850392928
30100382
*
__utmz
229240335.1283542263.1.1.utmcsr=aeroflot.ru|utmccn=(referral)|utmcmd=referral|utmcct=/cms/booking
booking.aeroflot.ru/
1088
1208554880
30137095
2344452928
30100382
*
