__utma
63147324.1948198267.1284831149.1284831149.1284831149.1
beautysafari.ru/
1600
1763652736
30250234
2009157632
30103383
*
__utmb
63147324.1.10.1284831149
beautysafari.ru/
1600
2826168448
30103387
2009627632
30103383
*
__utmz
63147324.1284831149.1.1.utmcsr=google|utmccn=(organic)|utmcmd=organic|utmctr=%D1%81%D0%BE%D0%B2%D0%B5%D1%82%D1%8B%20%D0%BF%D0%BE%20%D1%81%D1%82%D0%B8%D0%BB%D1%8E%20%D0%BE%D1%82%20%D0%BA%D1%81%D0%B5%D0%BD%D0%B8%D0%B8%20%D1%81%D0%BE%D0%B1%D1%87%D0%B0%D0%BA
beautysafari.ru/
1600
871699584
30140096
2009157632
30103383
*
