__utma
163863791.247662273.1239642636.1239642636.1239642636.1
abn-ad.com/
1600
3017766784
30145021
3267651680
29998170
*
__utmb
163863791
abn-ad.com/
1600
4080282496
29998174
3267801680
29998170
*
__utmz
163863791.1239642636.1.1.utmccn=(referral)|utmcsr=a.abnad.net|utmcct=/iframe|utmcmd=referral
abn-ad.com/
1600
2125813632
30034883
3267801680
29998170
*
