uid
22671f6fbf72a3683e4b89dc5ebbcec1
t.rorer.ru/
1024
2684731392
31520448
1870080208
29989327
*
bsh
1242504000|bw8B
t.rorer.ru/
1024
2684731392
31520448
1021523680
30004920
*
bch
1242504000|
t.rorer.ru/
1024
2684731392
31520448
1021683680
30004920
*
