__utma
232400140.70785200.1270329095.1270329095.1270329095.1
beautymania.ru/
1600
1404402176
30216469
1650997072
30069618
*
__utmb
232400140.3.10.1270329095
beautymania.ru/
1600
2466917888
30069622
1651157072
30069618
*
__utmz
232400140.1270329095.1.1.utmcsr=google|utmccn=(organic)|utmcmd=organic|utmctr=%D0%98%D0%B7%D1%80%D0%B0%D0%B8%D0%BB%D1%8C%D1%81%D0%BA%D0%B0%D1%8F%20%D0%BA%D0%BE%D1%81%D0%BC%D0%B5%D1%82%D0%B8%D0%BA%D0%B0
beautymania.ru/
1600
4197416320
30106330
1038497072
30069618
*
