__utma
49438823.1975678308.1276799325.1276799325.1276799325.1
pravda.ru/
1600
4217055232
30231533
168532832
30084683
*
__utmb
49438823.2.10.1276799325
pravda.ru/
1600
984603648
30084687
168532832
30084683
*
__utmz
49438823.1276799325.1.1.utmcsr=news.mail.ru|utmccn=(referral)|utmcmd=referral|utmcct=/incident/3983200/
pravda.ru/
1600
2815102080
30121395
3956150128
30084682
*
