__utma
195855342.1535703897.1271155773.1271155773.1271160263.2
svali.ru/
1600
1702684416
30218404
1953659312
30071553
*
__utmb
195855342
svali.ru/
1600
3305200128
30071557
2489439312
30071553
*
__utmz
195855342.1271160316.2.3.utmccn=(organic)|utmcsr=google|utmctr=%D0%98%D1%81%D0%BF%D0%B0%D0%BD%D0%B8%D1%8F+%D0%9A%D0%BE%D1%81%D1%82%D0%B0-%D0%91%D1%80%D0%B0%D0%B2%D0%B0%2C+%D0%9B%D1%8C%D0%BE%D1%80%D0%B5%D1%82-%D0%B4%D0%B5-%D0%9C%D0%B0%D1%80+|utmcmd=organic
svali.ru/
1600
1350731264
30108266
2489439312
30071553
*
