uid
6a414c3e9b3e0ee478630f371e7707d2
pravda.prbn.ru/
1024
2684731392
31520448
509076176
29989344
*
bsh
1235768400|
pravda.prbn.ru/
1024
2684731392
31520448
509076176
29989344
*
bch
1235768400|
pravda.prbn.ru/
1024
2684731392
31520448
509076176
29989344
*
