__utma
122998548.3240272314714061300.1277457256.1277457256.1279823903.2
diary.ru/
1600
22389504
30238576
270394400
30091725
*
__utmb
122998548.1.10.1279823903
diary.ru/
1600
1084905216
30091729
270394400
30091725
*
__utmz
122998548.1279823903.2.2.utmcsr=blogs.yandex.ru|utmccn=(referral)|utmcmd=referral|utmcct=/search.xml
diary.ru/
1600
3425403648
30128437
270234400
30091725
*
