__utma
39763106.797250110.1282577399.1282577399.1286554809.2
piluli.ru/
1600
2659893888
30254247
2907278784
30107396
*
__utmb
39763106.1.10.1286554809
piluli.ru/
1600
3722409600
30107400
2907278784
30107396
*
__utmz
39763106.1286554809.2.2.utmcsr=yandex|utmccn=(organic)|utmcmd=organic|utmctr=%D0%BB%D0%B0%D0%B7%D0%BE%D0%BB%D0%B2%D0%B0%D0%BD
piluli.ru/
1600
1767940736
30144109
2906958784
30107396
*
