PARTNERCOOK
Wd7VYkwLwfYr9Ti2BS++Ag==
affiliates.quintura.com/
1536
1637637888
30155872
3837681280
30082445
*
HANDPRINT
100606153551-2619388
affiliates.quintura.com/
1536
1761935360
30785590
3841281280
30082445
*
