__utma
59574702.154081356.1274645727.1274645727.1274645727.1
ricaud.com/
1600
2693077376
30226519
2937642272
30079668
*
__utmb
59574702.1.10.1274645727
ricaud.com/
1600
3755593088
30079672
2937802272
30079668
*
__utmz
59574702.1274645727.1.1.utmcsr=CPM|utmccn=teasermail_v2|utmcmd=teasermail
ricaud.com/
1600
1801124224
30116381
2937492272
30079668
*
