__utma
138450668.1499804731.1269872964.1269872964.1269872964.1
ntv.ru/
1600
739670528
30215407
982515424
30068556
*
__utmz
138450668.1269872964.1.1.utmccn=(organic)|utmcsr=google|utmctr=%D0%BD%D1%82%D0%B2+%D0%BD%D0%BE%D0%B2%D0%BE%D1%81%D1%82%D0%B8|utmcmd=organic
ntv.ru/
1600
4142684672
30105268
982675424
30068556
*
