ident
1238992297055&e6607c390a5e11202f17151fcb4901147a70e2de
classmates.com/
1024
3270768640
29996660
2206257824
29996656
*
NMUV
52616e646f6d4956625e4ff83cf41d32fd4b1042fb8eb679f8c71ec491fb45fc8eb0232b9df0b54f01fe0b429d35b356a74be3d87ec60af9aede0b13051ea5a571c7cd2f16851ebcddcfecf3c1999d3c15333ee876ae064395eb4373f1ff4c51c131a0276058afa5237039765668b2117b5d0e47d9205ee1
classmates.com/
1024
1238713344
30730911
2206257824
29996656
*
