.ASPXANONYMOUS
KRzNvEo_ywEkAAAANzdiYmMzZTItMjg3Zi00MWViLTkyOTgtZTI2YzhhNTMyZGQ3KwlDaQ92QekHld0niaCIqaJfTSs1
www.malev.com/
9728
3159679104
30097226
64546928
30083257
*
__utma
1.843223330.1276186906.1276186906.1276186906.1
www.malev.com/
1600
1245452032
30230108
1494086928
30083257
*
__utmz
1.1276186906.1.1.utmcsr=(direct)|utmccn=(direct)|utmcmd=(none)
www.malev.com/
1600
3248466176
30119969
90176928
30083257
*
