ES
715481-k5AGM-0_775649-gL#aM-NU.3
questionmarket.com/
1024
518132608
30192427
215976032
30108608
*
CS1
777070-2-9_777072-5-1_777071-3-1
questionmarket.com/
1024
518132608
30192427
215816032
30108608
*
