dv
gAAAAAAAAAAAAAAAAAAAAAAAAAAAAAA:1236755850
planeta.rambler.ru/
1536
688338816
32108254
1727378096
29991449
*
planetaleftblockset
%7Cplanetalbpar1_8+3%7Cplanetalbpar2_8+1
planeta.rambler.ru/
1600
3801639296
30064874
1783468096
29991449
*


planeta.rambler.ru/
1600
667801216
34459479
1783308096
29991449
*
