kid
1271697477
www.onclinic.ru/immunologiya_i_allergologiya/
1536
3117273216
30146229
801442016
30072804
*
kst
TI
www.onclinic.ru/immunologiya_i_allergologiya/
1536
3117273216
30146229
801442016
30072804
*
kdt
190410
www.onclinic.ru/immunologiya_i_allergologiya/
1536
3117273216
30146229
801442016
30072804
*
