Apache
168362018x0.522+1242234625x440599044
adbrite.com/
1024
608671360
31472715
2861580320
30004205
*
b
%3A%3Ahrge
adbrite.com/
1024
763844224
30077631
2861580320
30004205
*
geo
1%3Aq1YqM1SyqlZKyU1UslIyUNJRSs4vBbKCXYHMovQ8INPRCcgszkwHMi0TEy2MLFIsDI1MU4wtTAxNDZPTzEzMjM1Sko2NjSySlGprAQ%3D%3D
adbrite.com/
1024
3718567552
30005613
2861580320
30004205
*
