UserProfile
teJxSYGKgCIC035zJwPBRioHhpDwjWAzGT1ZgpMzwEQJAYQgKrz3ykLCDAVB4#kwkJwjeF/T2LNw2YWKC7gZhn99/wPBMSYBQAAAP//AwBVyhb0#A#
awaps.net/8/6897/
1024
1233623552
30491488
1796153120
30002405
*
profile_flag
1
awaps.net/8/6897/
1024
1233623552
30491488
3533300416
30002404
*
