__utma
241647325.1406353282.1271770800.1286715533.1287757135.7
uralairlines.ru/
1600
1465088
30257047
253059984
30110196
*
__utmz
241647325.1287757135.7.7.utmcsr=mail.yandex.ru|utmccn=(referral)|utmcmd=referral|utmcct=/neo/message
uralairlines.ru/
1600
3404479232
30146908
252279984
30110196
*
__utmb
241647325.1.10.1287757135
uralairlines.ru/
1600
1063980800
30110200
253379984
30110196
*
