__utma
114604437.1910194954.1286982500.1286982500.1287506049.2
con-med.ru/
1600
1707333248
30256462
1953148144
30109611
*
__utmz
114604437.1287506734.2.3.utmccn=(organic)|utmcsr=google|utmctr=%D0%92%D0%BB%D0%B8%D1%8F%D0%BD%D0%B8%D0%B5+%D0%BD%D0%B0+%D1%83%D1%80%D0%BE%D0%B2%D0%B5%D0%BD%D1%8C+%D0%BA%D0%BE%D0%BD%D1%82%D1%80%D0%BE%D0%BB%D1%8F+%D0%B1%D1%80%D0%BE%D0%BD%D1%85%D0%B8%D0%B0%D0%BB%D1%8C%D0%BD%D0%BE%D0%B9+%D0%B0%D1%81%D1%82%D0%BC%D1%8B+%D0%B8+%D0%B5%D0%B3%D0%BE+%D0%B4%D0%B8%D0%BD%D0%B0%D0%BC%D0%B8%D0%BA%D1%83+%D0%BF%D1%81%D0%B8%D1%85%D0%BE%D0%BF%D0%B0%D1%82%D0%BE%D0%BB%D0%BE%D0%B3%D0%B8%D1%87%D0%B5%D1%81%D0%BA%D0%B8%D1%85+%D0%B8+%D0%BF%D0%B0%D1%82%D0%BE%D1%85%D0%B0%D1%80%D0%B0%D0%BA%D1%82%D0%B5%D1%80%D0%BE%D0%BB%D0%BE%D0%B3%D0%B8%D1%87%D0%B5%D1%81%D0%BA%D0%B8%D1%85+%D1%80%D0%B0%D1%81%D1%81%D1%82%D1%80%D0%BE%D0%B9%D1%81%D1%82%D0%B2+%D0%BB%D0%B8%D1%87%D0%BD%D0%BE%D1%81%D1%82%D0%B8+%D0%B8+%D0%BF%D1%80%D0%B8%D0%B2%D0%B5%D1%80%D0%B6%D0%B5%D0%BD%D0%BD%D0%BE%D1%81%D1%82%D0%B8+%D0%BF%D0%B0%D1%86%D0%B8%D0%B5%D0%BD%D1%82%D0%BE%D0%B2+%D0%BF%D1%80%D0%BE%D1%82%D0%B8%D0%B2%D0%BE%D0%B0%D1%81%D1%82%D0%BC%D0%B0%D1%82%D0%B8%D1%87%D0%B5%D1%81%D0%BA%D0%BE%D0%B9+%D1%82%D0%B5%D1%80%D0%B0%D0%BF%D0%B8%D0%B8.+|utmcmd=organic
con-med.ru/
1600
3370412800
30146325
214623552
30109613
*
__utmb
114604437
con-med.ru/
1600
1029914368
30109617
210403552
30109613
*
