__utma
94801690.965973904.1235717310.1235717310.1235717310.1
wg9.odnoklassniki.ru/
1600
1963884928
30135882
2214229824
29989031
*
__utmb
94801690
wg9.odnoklassniki.ru/
1600
3186400640
29989035
2373139824
29989031
*
__utmz
94801690.1235717310.1.1.utmccn=(direct)|utmcsr=(direct)|utmcmd=(none)
wg9.odnoklassniki.ru/
1600
571931776
30025744
1713449824
29989031
*
