__utma
57992058.1795098636.1269885511.1269885511.1269885511.1
alchelp.com/
1600
1965618944
30215436
2213313840
30068585
*
__utmb
57992058.2.10.1269885511
alchelp.com/
1600
3028134656
30068589
2213313840
30068585
*
__utmz
57992058.1269885511.1.1.utmcsr=google|utmccn=(organic)|utmcmd=organic|utmctr=%D0%BB%D0%B5%D1%87%D0%B5%D0%BD%D0%B8%D0%B5%20%D0%B7%D0%B0%D0%B2%D0%B8%D1%81%D0%B8%D0%BC%D0%BE%D1%81%D1%82%D0%B8%20%D0%BE%D1%82%20%D0%BB%D1%8E%D0%B1%D0%B2%D0%B8
alchelp.com/
1600
753665792
30105298
1897843840
30068585
*
