mid333
WfkWyEu9pnAM9WpmA2SFAg==
mixmarket.biz/
1024
517871616
30143954
2643727712
30070528
*
_PSID
450411726
mixmarket.biz/
1024
831712896
30975774
2644197712
30070528
*
_UPSID
450411727
mixmarket.biz/
1024
882077312
30161053
2644197712
30070528
*
