sessionhash
22a244c3c783d2f931d95b5b439be6de
www.christinashop.ru/
1536
4188120064
30189216
2069328864
30115791
*
sessionid
3232199
www.christinashop.ru/
1536
4188120064
30189216
2069328864
30115791
*
lbid2
32
www.christinashop.ru/
1536
3184197504
30121826
3222608864
30115791
*
__visu
AAAAAA1rx8wAAAAADWvHzA__
www.christinashop.ru/
1600
953148672
30436893
3710654560
30069765
*
userhash
5c7c8571f2ef5b51606c5433f654c4db
www.christinashop.ru/
1600
3294524800
30164950
1332133600
30091525
*
userid
13884
www.christinashop.ru/
1600
3294524800
30164950
1332133600
30091525
*
statg
1279738319677.1286719966.3
www.christinashop.ru/
1024
456950528
30332282
630649824
30107781
*
