__utma
163078845.339803093.1272137043.1272137043.1272137043.1
peoples.ru/
1600
2757053312
30220678
3001938208
30073827
*
__utmb
163078845.1.10.1272137043
peoples.ru/
1600
3819569024
30073831
3002248208
30073827
*
__utmz
163078845.1272137043.1.1.utmcsr=google|utmccn=(organic)|utmcmd=organic|utmctr=%D0%BC%D0%B8%D1%85%D0%B0%D0%B8%D0%BB%20%D0%BA%D0%BE%D0%B7%D1%8B%D1%80%D0%B5%D0%B2%20%D0%B1%D0%B8%D0%BE%D0%B3%D1%80%D0%B0%D1%84%D0%B8%D1%8F
peoples.ru/
1600
1865100160
30110540
3001778208
30073827
*
