__utma
237150274.1996107169.1274790986.1274790986.1282582676.2
svpressa.ru/
1600
2507447296
30244999
2752952192
30098148
*
__utmz
237150274.1282582676.2.2.utmcsr=news.mail.ru|utmccn=(referral)|utmcmd=referral|utmcct=/incident/4324904/
svpressa.ru/
1600
295494144
30134861
1434362192
30098148
*
puCreatedNew
1
svpressa.ru/
1600
2491405696
30098349
1784672192
30098148
*
__utmb
237150274.6.10.1282582676
svpressa.ru/
1600
3569963008
30098152
2753112192
30098148
*
