uin
18042893834a1c3fc40a6fa
www.salon8marta.ru/
1536
527841792
30043048
1293619952
30006838
*
cnstid
-1728335615
www.salon8marta.ru/
1024
85150080
30080270
1301749952
30006838
*
cnsuid
169800
www.salon8marta.ru/
1024
2353826176
30006844
1301749952
30006838
*
SESSION
fa48083d6ec2c7404f1170b21ecb8a7f
www.salon8marta.ru/
1536
627841792
30043048
1402529952
30006838
*
