bblastvisit
1277308458
forum.unilans.ru/
1536
3474518272
30159293
3644904368
30085867
*
bblastactivity
0
forum.unilans.ru/
1536
3474518272
30159293
3644904368
30085867
*
__utma
1.533634755.1277308250.1277308250.1277308250.1
forum.unilans.ru/
1600
3420809472
30232718
3667724368
30085867
*
__utmz
1.1277308250.1.1.utmcsr%3Dyandex%7Cutmccn%3D(organic)%7Cutmcmd%3Dorganic%7Cutmctr%3D%25D0%25BF%25D0%25BB%25D1%258F%25D0%25B6%25D0%25B8%2520%25D0%25B2%2520%25D0%25BC%25D0%25BE%25D1%2581%25D0%25BA%25D0%25B2%25D0%25B5%2520%25D0%25B8%2520%25D0%25BF%25D0%25BE%25D0%25B4%25D0%25BC%25D0%25BE%25D1%2581%25D0%25BA%25D0%25BE%25D0%25B2%25D1%258C%25D0%25B5
forum.unilans.ru/
1600
2528856320
30122580
3667724368
30085867
*
