uid
a98d8cba7986014d57361eb757bfd07c
text.4smi.ru/
1024
2684731392
31520448
628842720
30086680
*
bch
1277582400|
text.4smi.ru/
1024
2684731392
31520448
629782720
30086680
*
mb_timezone
-240
text.4smi.ru/
1104
2694731392
31520448
637902720
30086680
*
