__utma
207194384.1327928725.1270916984.1287662976.1298813170.20
realty.mail.ru/
1600
3708298752
30282788
3955523648
30135937
*
__utmz
207194384.1298813170.20.20.utmcsr=mail.ru|utmccn=(referral)|utmcmd=referral|utmcct=/
realty.mail.ru/
1600
2716345600
30172650
3850993648
30135937
*
__utmb
207194384.2.10.1298813170
realty.mail.ru/
1600
475847168
30135942
3955523648
30135937
*
