__utma
234311626.2139486718546282500.1241457300.1241457300.1241457300.1
edinros.er.ru/
1600
3420941184
30149246
3669256080
30002395
*
__utmb
234311626.1.10.1241457300
edinros.er.ru/
1600
188489600
30002400
3669416080
30002395
*
__utmz
234311626.1241457300.1.1.utmcsr=google|utmccn=(organic)|utmcmd=organic|utmctr=%D0%94%D0%BE%D0%BB%D0%B6%D0%BD%D0%B0%20%D0%BB%D0%B8%20%D0%BC%D0%BE%D0%BB%D0%BE%D0%B4%D0%B5%D0%B6%D1%8C%20%D1%83%D1%87%D0%B0%D1%81%D1%82%D0%B2%D0%BE%D0%B2%D0%B0%D1%82%D1%8C%20%D0%B2%20%D0%BF%D0%BE%D0%BB%D0%B8%D1%82%D0%B8%D1%87%D0%B5%D1%81%D0%BA%D0%B8%D1%85%20%D0%BF%D0%B0%D1%80%D1%82%D0%B8%D1%8F%D1%85
edinros.er.ru/
1600
2528988032
30039108
3669256080
30002395
*
