ctc
on%5F3
videoclik.ru/
1024
194832768
30859217
1617585488
30079647
*
id
1244280454
videoclik.ru/
1024
194832768
30859217
1618985488
30079647
*
bht
12-5-0-0-0%3A27-4-0-0-0
videoclik.ru/
1024
194832768
30859217
1618985488
30079647
*
cpa
300-433-148-2-1274636610%3A301-406-148-2-1274636610
videoclik.ru/
1024
194832768
30859217
1620555488
30079647
*
