__utma
244818906.1441665385.1284038010.1284038010.1286471332.2
gazeta.ru/
1600
1113549312
30254053
1362964208
30107202
*
__utmb
244818906.1.10.1286471332
gazeta.ru/
1600
2176065024
30107206
1363894208
30107202
*
__utmz
244818906.1286471332.2.2.utmcsr=beta.novoteka.ru|utmccn=(referral)|utmcmd=referral|utmcct=/
gazeta.ru/
1600
221596160
30143915
1361864208
30107202
*
