us_sm_aut
9-2
vidal.ru/
1600
535233664
30328866
3048634656
30108589
*
s_nr
1287067213234-New
vidal.ru/
1600
2663400576
30126694
3048634656
30108589
*
s_lastvisit
1287067191046
vidal.ru/
1600
315233664
30328866
2826754656
30108589
*
