__utma
184260516.693910829.1270662181.1270662181.1270662181.1
servier.ua/
1600
3134747776
30217244
3383222672
30070393
*
__utmb
184260516.2.10.1270662181
servier.ua/
1600
4197263488
30070397
3383382672
30070393
*
__utmz
184260516.1270662181.1.1.utmcsr=google|utmccn=(organic)|utmcmd=organic|utmctr=%D0%BB%D0%B5%D1%87%D0%B5%D0%BD%D0%B8%D0%B5%20%D0%BE%D1%81%D1%82%D0%B5%D0%BE%D0%BF%D0%BE%D1%80%D0%BE%D0%B7%D0%B0%20%D1%83%20%D0%B6%D0%B5%D0%BD%D1%89%D0%B8%D0%BD
servier.ua/
1600
2162794624
30107106
3301972672
30070393
*
