city
1
abonus.ru/
1536
3958950400
30107600
2376300464
30106191
*
__utma
7152610.522530380.1286037215.1286037215.1286037215.1
abonus.ru/
1600
2155485568
30253042
2399580464
30106191
*
__utmb
7152610.1.10.1286037215
abonus.ru/
1600
3218001280
30106195
2399740464
30106191
*
__utmz
7152610.1286037215.1.1.utmcsr=win.mail.ru|utmccn=(referral)|utmcmd=referral|utmcct=/cgi-bin/start
abonus.ru/
1600
1263532416
30142904
2399580464
30106191
*
