uid
BwAACkwH/p2gnJc6AwPdAg==
www.rb.ru/
1024
1835617408
30816127
2919251888
30081872
*
__utma
1.234820174.1286284681.1286284681.1286284681.1
www.rb.ru/
1600
3204323072
30253618
3449987968
30106767
*
__utmz
1.1286284681.1.1.utmcsr=news.mail.ru|utmccn=(referral)|utmcmd=referral|utmcct=/incident/4541749/
www.rb.ru/
1600
2012369920
30143480
3153417968
30106767
*
