__utma
37467066.1523663361.1282847546.1282847546.1282847546.1
korod.ru/
1104
4177592960
30245615
133060560
30098765
*
__utmb
37467066.1.10.1282847546
korod.ru/
1104
945141376
30098769
133380560
30098765
*
__utmz
37467066.1282847546.1.1.utmcsr=odnoklassniki.ru|utmccn=(referral)|utmcmd=referral|utmcct=/dk
korod.ru/
1104
3285639808
30135477
132750560
30098765
*
