A2
eFw29Kbe0aYb0000820wrFdoKQ9EMc0aYb0000820wrqexuN9F990aYb0000w820rr
serving-sys.com/
2147484672
4152782848
32108237
2397064800
30113075
*
B2
7a680820wrF766g0w820rr6CxV0820wrq
serving-sys.com/
2147484672
4152782848
32108237
2397064800
30113075
*
C3
0uG9820wrF0000001_0sUQw820rr0000004_
serving-sys.com/
2147484672
4152782848
32108237
2397064800
30113075
*
D3
0uG9043V820wrF0sUQ0453o61wrr
serving-sys.com/
2147484672
4152782848
32108237
2397214800
30113075
*
E2
0aYbw20wrF
serving-sys.com/
2147484672
4152782848
32108237
2397214800
30113075
*
u2
31535761-54f6-49da-b7f2-4e726221be323CZ04g
serving-sys.com/
2147484672
4152782848
32108237
2397214800
30113075
*
u3
1
serving-sys.com/
2147484672
4152782848
32108237
2397214800
30113075
*
