t
1
ads.adfox.ru/2734/
1024
194832768
30859217
1981100624
29992356
*
tpb

ads.adfox.ru/2734/
1024
194832768
30859217
1981570624
29992356
*
rtpa

ads.adfox.ru/2734/
1024
194832768
30859217
1981570624
29992356
*
vid
gxrfrkb
ads.adfox.ru/2734/
1024
194832768
30859217
1981570624
29992356
*
