user_date
26.05.2009
www.mirdivanov.ru/
1536
924895232
30050908
4167529952
30006838
*
user_last_date
09.05.2009
www.mirdivanov.ru/
1536
924895232
30050908
3960969952
30006838
*
user_good_1
339
www.mirdivanov.ru/
1536
924895232
30050908
4114719952
30006838
*
user_good_2
371
www.mirdivanov.ru/
1536
924895232
30050908
4252059952
30006838
*
