uid
22671f6fbf72a3683e4b89dc5ebbcec1
txt.zarabotki.ru/
1024
2684731392
31520448
2479033632
29988633
*
bsh
1243627200|
txt.zarabotki.ru/
1024
2684731392
31520448
2107958000
30007625
*
bch
1243627200|
txt.zarabotki.ru/
1024
2684731392
31520448
2108268000
30007625
*
