__utma
30940067.705337424.1274534831.1274534831.1274534831.1
mirbt.ru/
1600
3334639744
30226261
3586084640
30079410
*
__utmb
30940067.3.10.1274534831
mirbt.ru/
1600
102188160
30079415
3586234640
30079410
*
__utmz
30940067.1274534831.1.1.utmcsr=(direct)|utmccn=(direct)|utmcmd=(none)
mirbt.ru/
1600
932686592
30116123
2076234640
30079410
*
