__utma
256787092.1045666725.1274468983.1274468983.1274468983.1
locals.ru/
1600
474636032
30226108
724980928
30079257
*
__utmb
256787092.1.10.1274468983
locals.ru/
1600
1537151744
30079261
725610928
30079257
*
__utmz
256787092.1274468983.1.1.utmcsr=yandex|utmccn=(organic)|utmcmd=organic|utmctr=%D0%90%D0%BD%D0%B4%D1%80%D0%B5%D0%B9%20%20%D0%A1%D0%B0%D0%B9%D1%84%D1%83%D1%82%D0%B4%D0%B8%D0%BD%D0%BE%D0%B2
locals.ru/
1600
3877650176
30115969
724830928
30079257
*
