__utma
86016519.37831466.1284666650.1284666650.1286988182.2
directadvert.ru/
1600
2917892224
30255256
3163867120
30108405
*
__utmb
86016519.2.10.1286988182
directadvert.ru/
1600
3980407936
30108409
3164027120
30108405
*
__utmz
86016519.1284666650.1.1.utmcsr=(direct)|utmccn=(direct)|utmcmd=(none)
directadvert.ru/
1600
854173952
30139713
1990852000
30103000
*
