__utma
82509908.40134934.1276089672.1276089672.1276092782.2
sravni.ru/
1600
1393355264
30229891
1640740160
30083040
*
__utmz
82509908.1276092782.2.2.utmcsr=dengi.sravni.ru|utmccn=(referral)|utmcmd=referral|utmcct=/%D0%B1%D0%B0%D0%BD%D0%BA%D0%B8/%D0%A0%D0%B0%D0%B9%D1%84%D1%84%D0%B0%D0%B9%D0%B7%D0%B5%D0%BD%D0%B1%D0%B0%D0%BD%D0%BA/%D0%BA%D1%80%D0%B5%D0%B4%D0%B8%D1%82%D1%8B/%D0%9F%D0%B5%D1%80%D1%81%D0%BE%D0%BD%D0%B0%D0%BB%D1%8C%D0%BD%D1%8B%D0%B9%20%D0%BA%D1%80%D0%B5%D0%B4%D0%B8%D1%82/
sravni.ru/
1600
2606304000
30119750
3741102048
30083037
*
