UserParams
PROMTlang=ru&UID=1216565319
translate.ru/
1536
2034847744
30803261
3705477376
30068394
*
__utma
99927643.544007965.1269803666.1289666614.1290627630.18
translate.ru/
1600
1805025920
30263730
2050840816
30116879
*
__utmz
99927643.1288536519.13.1.utmcsr=(direct)|utmccn=(direct)|utmcmd=(none)
translate.ru/
1600
1878836992
30148723
3023015040
30112010
*
__utmb
99927643.6.10.1290627630
translate.ru/
1600
2867541632
30116883
2050840816
30116879
*
