mrcu
F9454BAF5C363B6C806D66FC9758
mail.ru/
1024
1502019584
32001346
3482589200
30127300
*
p
qTQGAOb3HwAA
mail.ru/
1024
532868096
30215199
504152992
30068348
*
searchuid
1801641271269783611
mail.ru/
1024
3888295808
30802602
533532992
30068348
*
t
obLD1AAAAAAIAAAAAAAAAAAAAAAAAAAAAAAAAAAAAAAAAAAAAAAAAAAAAAAAAAACAAABAAAAAAAAAAB/AB8HtAcA
mail.ru/
1024
2077431040
30163510
3482589200
30127300
*
VID
0SAxKG0hOVmq
mail.ru/
1024
4263472128
30145807
3836649200
30127300
*
geo_city_id
1533
mail.ru/
1024
1183620096
30143824
3337296192
30070398
*
__utma
56108983.75175572.1271165369.1285515225.1286296754.11
mail.ru/
1088
3645238784
30253646
3892773680
30106795
*
b
dDoEODDU8gAAJn8YiEkxBABAeAyBwKVPgXO/iOd+EWUDG6D7NTRhS1jQyxBUFOH3Y8EyxgL5gAlzJBN73iHWxyWc9XEIp89uAgAA
mail.ru/
1600
2156709888
30195747
3296304336
30122509
*
Mpop
1295039736:6d555a6003630a72190502190f1d00061c02064f6a5d5e465e0402060d051e0808061e56555f501d55455a555c5a155a58585c184a47:olga-drobik@mail.ru:
mail.ru/
1024
415484928
30145257
3481499200
30127300
*
